EstComp-Tarea3
…
#>   TO_FONDO_RF = col_integer(),
#>   TO_FONDO_RV = col_integer(),
#>   TO_PREST_CONSUMO = col_integer(),
#>   NU_REGULARIDAD_TDC_ULT_6M = col_integer()
#>   # ... with 16 more columns
#> )
#> See spec(...) for full column specifications.
#> Warning in rbind(names(probs), probs_f): number of columns of result is not
#> a multiple of vector length (arg 1)
#> Warning: 442 parsing failures.
#> row # A tibble: 5 x 5 col     row                  col               expected  actual expected   <int>                <chr>                  <chr>   <chr> actual 1  1435 IM_PROM_MERCADOS_12M no trailing characters  .82583 file 2  1781     IM_PROM_OTRO_12M no trailing characters     .89 row 3  2053 IM_PROM_MERCADOS_12M no trailing characters  .30083 col 4  2726     IM_PROM_OTRO_12M no trailing characters     .12 expected 5  2726  IM_PROM_CARTERA_12M no trailing characters .866667 actual # ... with 1 more variables: file <chr>
#> ... ................. ... ........................................................... ........ ........................................................... ...... ........................................................... .... ........................................................... ... ........................................................... ... ........................................................... ........ ........................................................... ...... .......................................
#> See problems(...) for more details.
cred
#> # A tibble: 176,330 x 92
#>      id2 IM_MAX_SDO_MEDIO_12M IM_PROM_HIPOTECA_12M IM_PROM_PREST_NOM_12M
#>    <int>                <dbl>                <dbl>                 <dbl>
#>  1     1              1100.00                    0                 0.000
#>  2     5             22836.13                    0              2445.065
#>  3    16              5936.92                    0             90829.800
#>  4    17            541013.76                    0                 0.000
#>  5    62              5059.81                    0                 0.000
#>  6    64             39304.27                    0             63344.652
#>  7    68               677.29                    0                 0.000
#>  8    76                 0.00                    0                 0.000
#>  9    79             66232.62                    0                 0.000
#> 10   100             85668.20                    0                 0.000
#> # ... with 176,320 more rows, and 88 more variables:
#> #   IM_PROM_AUTO_12M <dbl>, IM_PROM_PPIS_12M <dbl>,
#> #   IM_PROM_OTRO_12M <int>, IM_PROM_CARTERA_12M <int>,
#> #   IM_PROM_SDO_CORTE_12M <dbl>, IM_PROM_SDO_MEDIO_12M <dbl>,
#> #   IM_PROM_VISTA_12M <dbl>, IM_PROM_PLAZO_12M <dbl>,
#> #   IM_PROM_FONDO_RF_12M <dbl>, IM_PROM_FONDO_RV_12M <dbl>,
#> #   IM_PROM_FONDOS_AES_12M <dbl>, IM_PROM_MERCADOS_12M <int>,
#> #   IM_PROM_ACTIVO_12M <dbl>, IM_PROM_VISTA_6M <dbl>,
#> #   IM_PROM_PREST_CONSUMO_6M <dbl>, IM_PROM_SDO_CORTE_3M <dbl>,
…
datana<-is.na(cred)
cred[datana]<-0 
cred
#> # A tibble: 176,330 x 92
#>      id2 IM_MAX_SDO_MEDIO_12M IM_PROM_HIPOTECA_12M IM_PROM_PREST_NOM_12M
#>    <int>                <dbl>                <dbl>                 <dbl>
#>  1     1              1100.00                    0                 0.000
#>  2     5             22836.13                    0              2445.065
#>  3    16              5936.92                    0             90829.800
#>  4    17            541013.76                    0                 0.000
#>  5    62              5059.81                    0                 0.000
#>  6    64             39304.27                    0             63344.652
#>  7    68               677.29                    0                 0.000
#>  8    76                 0.00                    0                 0.000
#>  9    79             66232.62                    0                 0.000
#> 10   100             85668.20                    0                 0.000
#> # ... with 176,320 more rows, and 88 more variables:
#> #   IM_PROM_AUTO_12M <dbl>, IM_PROM_PPIS_12M <dbl>,
#> #   IM_PROM_OTRO_12M <dbl>, IM_PROM_CARTERA_12M <dbl>,
#> #   IM_PROM_SDO_CORTE_12M <dbl>, IM_PROM_SDO_MEDIO_12M <dbl>,
#> #   IM_PROM_VISTA_12M <dbl>, IM_PROM_PLAZO_12M <dbl>,
#> #   IM_PROM_FONDO_RF_12M <dbl>, IM_PROM_FONDO_RV_12M <dbl>,
#> #   IM_PROM_FONDOS_AES_12M <dbl>, IM_PROM_MERCADOS_12M <dbl>,
#> #   IM_PROM_ACTIVO_12M <dbl>, IM_PROM_VISTA_6M <dbl>,
#> #   IM_PROM_PREST_CONSUMO_6M <dbl>, IM_PROM_SDO_CORTE_3M <dbl>,
…
