examen1
…
## Parsed with column specification:
## cols(
##   ID = col_integer(),
##   speed = col_integer(),
##   period = col_integer(),
##   warning = col_integer(),
##   pair = col_integer()
## )

amis

## # A tibble: 4,400 x 5
##       ID speed period warning  pair
##    <int> <int>  <int>   <int> <int>
##  1     1    26      1       1     1
##  2     2    26      1       1     1
##  3     3    26      1       1     1
##  4     4    26      1       1     1
##  5     5    27      1       1     1
##  6     6    28      1       1     1
##  7     7    28      1       1     1
##  8     8    28      1       1     1
##  9     9    28      1       1     1
## 10    10    29      1       1     1
## # ... with 4,390 more rows
…
library(boot)
#> 
#> Attaching package: 'boot'
#> The following object is masked _by_ '.GlobalEnv':
#> 
#>     amis
library(bootstrap) 
library(ggplot2)
#usamos la función boot del mismo paquete para hacer las 3000 replicaciones y usando la función etf que hicimos e el inciso anterior...

#podemos observar con la tabla sumb que cada categoria de period,warning y pair tiene exactamente 100 observaciones,entonces podemos generar las muestras bootstrap estratificadas.
sumb<-amis%>%group_by(period,warning,pair)%>%summarize(cont=n())%>%arrange(cont)
sumb
#> # A tibble: 44 x 4
#> # Groups:   period, warning [4]
#>    period warning  pair  cont
#>     <int>   <int> <int> <int>
#>  1      1       1     1   100
#>  2      1       1     2   100
#>  3      1       1     5   100
#>  4      1       1     7   100
#>  5      1       1     8   100
#>  6      1       1     9   100
#>  7      1       1    10   100
#>  8      1       1    11   100
#>  9      1       1    12   100
#> 10      1       1    13   100
#> # ... with 34 more rows
…
#>   HR05 = col_double(),
#>   HR10 = col_double(),
#>   HR15 = col_double(),
#>   HR20 = col_double(),
#>   HR30 = col_double(),
#>   HR40 = col_double(),
#>   HR60 = col_double(),
#>   HR80 = col_double(),
#>   HR100 = col_double(),
#>   HR120 = col_double(),
#>   HR180 = col_integer(),
#>   HR240 = col_integer()
#> )
pew
#> # A tibble: 35 x 17
#>    formulation  subj   seq   prd   HR0  HR05  HR10  HR15  HR20  HR30  HR40
#>          <chr> <int> <int> <int> <dbl> <dbl> <dbl> <dbl> <dbl> <dbl> <dbl>
#>  1           T     1     1     2  0.00  2.81  2.39  2.96  4.08  2.72  1.88
#>  2           T     3     1     2  0.00  0.25  2.25  2.64  4.18  3.97  2.25
#>  3           T     5     1     2  0.00  1.80  3.16  3.49  2.85  2.71  1.52
#>  4           T     8     1     2  0.10  4.62  4.06  3.31  3.88  3.19  1.73
#>  5           T     9     1     2  0.11  1.72  1.67  2.45  2.63  4.60  2.00
#>  6           T    12     1     2  0.00  1.48  1.82  1.84  2.88  2.12  1.22
#>  7           T    16     1     2  0.00  1.02  1.68  2.95  3.30  4.06  2.17
#>  8           T    17     1     2  0.00  2.48  4.02  3.98  5.46  4.80  3.20
#>  9           T    19     1     2  0.00  1.12  1.65  1.57  1.71  4.44  3.06
#> 10           T    22     1     2  0.00  0.21  1.91  1.11  1.64  2.46  1.55
#> # ... with 25 more rows, and 6 more variables: HR60 <dbl>, HR80 <dbl>,
#> #   HR100 <dbl>, HR120 <dbl>, HR180 <int>, HR240 <int>
…
